Firebrick,#B0171F,176,23,31,Red
Crimson,#DC143C,220,20,60,Red
Light Pink,#FFB6C1,255,182,193,Tulip
Light Pink,#FFAEB9,255,174,185,Tulip
Illusion,#EEA2AD,238,162,173,Tulip
Puce,#CD8C95,205,140,149,Tulip
Rose Taupe,#8B5F65,139,95,101,Maroon
Pink,#FFC0CB,255,192,203,Tulip
Light Pink,#FFB5C5,255,181,197,Tulip
Shocking,#EEA9B8,238,169,184,Tulip
Puce,#CD919E,205,145,158,Tulip
Mauve Taupe,#8B636C,139,99,108,Maroon
Pale Violet Red,#DB7093,219,112,147,Deep Pink
Tickle Me Pink,#FF82AB,255,130,171,Light Pink
Mauvelous,#EE799F,238,121,159,Light Pink
Hopbush,#CD6889,205,104,137,Deep Pink
Cadillac,#8B475D,139,71,93,Maroon
Lavender Blush,#FFF0F5,255,240,245,White
Soft Peach,#EEE0E5,238,224,229,White
Alto,#CDC1C5,205,193,197,Grey
Venus,#8B8386,139,131,134,Grey
Wild Strawberry,#FF3E96,255,62,150,Deep Pink
French Rose,#EE3A8C,238,58,140,Deep Pink
Medium Red Violet,#CD3278,205,50,120,Magenta
Lipstick,#8B2252,139,34,82,Maroon
Hot Pink,#FF69B4,255,105,180,Deep Pink
Hot Pink,#FF6EB4,255,110,180,Deep Pink
Persian Pink,#EE6AA7,238,106,167,Light Pink
Hopbush,#CD6090,205,96,144,Light Pink
Camelot,#8B3A62,139,58,98,Maroon
Rose Bud Cherry,#872657,135,38,87,Purple
Deep Pink,#FF1493,255,20,147,Deep Pink
Ruby,#EE1289,238,18,137,Deep Pink
Medium Violet Red,#CD1076,205,16,118,Magenta
Jazzberry Jam,#8B0A50,139,10,80,Deep Pink
Persian Rose,#FF34B3,255,52,179,Deep Pink
Violet Red,#EE30A7,238,48,167,Deep Pink
Deep Cerise,#CD2990,205,41,144,Deep Pink
Dark Purple,#8B1C62,139,28,98,Purple
Medium Violet Red,#C71585,199,21,133,Magenta
Deep Cerise,#D02090,208,32,144,Deep Pink
Orchid,#DA70D6,218,112,214,Magenta
Fuchsia Pink,#FF83FA,255,131,250,Light Pink
Violet,#EE7AE9,238,122,233,Light Pink
Fuchsia,#CD69C9,205,105,201,Magenta
Violet Blue,#8B4789,139,71,137,Purple
Thistle,#D8BFD8,216,191,216,Light Pink
Lavender Blush,#FFE1FF,255,225,255,White
Amour,#EED2EE,238,210,238,White
Maverick,#CDB5CD,205,181,205,Light Pink
Taupe Grey,#8B7B8B,139,123,139,Grey
Cotton Candy,#FFBBFF,255,187,255,Light Pink
Classic Rose,#EEAEEE,238,174,238,Light Pink
Lilac,#CD96CD,205,150,205,Magenta
Trendy Pink,#8B668B,139,102,139,Purple
Plum,#DDA0DD,221,160,221,Light Pink
Violet,#EE82EE,238,130,238,Light Pink
Magenta,#FF00FF,255,0,255,Magenta
Magenta,#EE00EE,238,0,238,Magenta
Deep Magenta,#CD00CD,205,0,205,Magenta
Dark Magenta,#8B008B,139,0,139,Purple
Purple,#800080,128,0,128,Purple
Medium Orchid,#BA55D3,186,85,211,Light Pink
Heliotrope,#E066FF,224,102,255,Light Pink
Heliotrope,#D15FEE,209,95,238,Light Pink
Medium Orchid,#B452CD,180,82,205,Electric Indigo
Vivid Violet,#7A378B,122,55,139,Purple
Dark Violet,#9400D3,148,0,211,Electric Indigo
Dark Orchid,#9932CC,153,50,204,Electric Indigo
Heliotrope,#BF3EFF,191,62,255,Light Pink
Blue Violet,#B23AEE,178,58,238,Electric Indigo
Dark Orchid,#9A32CD,154,50,205,Electric Indigo
Vivid Violet,#68228B,104,34,139,Purple
Indigo,#4B0082,75,0,130,Electric Indigo
Blue Violet,#8A2BE2,138,43,226,Electric Indigo
Electric Purple,#9B30FF,155,48,255,Electric Indigo
Blue Violet,#912CEE,145,44,238,Electric Indigo
Purple Heart,#7D26CD,125,38,205,Electric Indigo
Persian Indigo,#551A8B,85,26,139,Navy
Medium Purple,#9370DB,147,112,219,Electric Indigo
Light Slate Blue,#AB82FF,171,130,255,Slate Blue
Medium Slate Blue,#9F79EE,159,121,238,Slate Blue
Amethyst,#8968CD,137,104,205,Electric Indigo
Gigas,#5D478B,93,71,139,Electric Indigo
Dark Slate Blue,#483D8B,72,61,139,Slate Blue
Light Slate Blue,#8470FF,132,112,255,Slate Blue
Medium Slate Blue,#7B68EE,123,104,238,Slate Blue
Slate Blue,#6A5ACD,106,90,205,Slate Blue
Light Slate Blue,#836FFF,131,111,255,Slate Blue
Medium Slate Blue,#7A67EE,122,103,238,Slate Blue
Slate Blue,#6959CD,105,89,205,Slate Blue
Dark Slate Blue,#473C8B,71,60,139,Slate Blue
Ghost White,#F8F8FF,248,248,255,White
Lavender,#E6E6FA,230,230,250,White
Blue,#0000FF,0,0,255,Blue
Blue,#0000EE,0,0,238,Blue
Medium Blue,#0000CD,0,0,205,Blue
Dark Blue,#00008B,0,0,139,Blue
Navy,#000080,0,0,128,Blue
Midnight Blue,#191970,25,25,112,Navy
Mariner,#3D59AB,61,89,171,Azure
Royal Blue,#4169E1,65,105,225,Azure
Neon Blue,#4876FF,72,118,255,Blue
Royal Blue,#436EEE,67,110,238,Azure
Free Speech Blue,#3A5FCD,58,95,205,Azure
Endeavour,#27408B,39,64,139,Teal
Cornflower Blue,#6495ED,100,149,237,Slate Blue
Light Steel Blue,#B0C4DE,176,196,222,Grey
Lavender Blue,#CAE1FF,202,225,255,Slate Blue
Tropical Blue,#BCD2EE,188,210,238,Aqua
Echo Blue,#A2B5CD,162,181,205,Slate Blue
Slate Grey,#6E7B8B,110,123,139,Grey
Light Slate Grey,#778899,119,136,153,Grey
Slate Grey,#708090,112,128,144,Grey
Lavender Blue,#C6E2FF,198,226,255,Slate Blue
Tropical Blue,#B9D3EE,185,211,238,Aqua
Echo Blue,#9FB6CD,159,182,205,Slate Blue
Lynch,#6C7B8B,108,123,139,Grey
Dodger Blue,#1E90FF,30,144,255,Azure
Dodger Blue,#1C86EE,28,134,238,Azure
Denim,#1874CD,24,116,205,Azure
Dark Cerulean,#104E8B,16,78,139,Azure
Alice Blue,#F0F8FF,240,248,255,White
Steel Blue,#4682B4,70,130,180,Azure
Maya Blue,#63B8FF,99,184,255,Aqua
Cornflower Blue,#5CACEE,92,172,238,Azure
Picton Blue,#4F94CD,79,148,205,Azure
Astral,#36648B,54,100,139,Teal
Light Aqua,#87CEFA,135,206,250,Aqua
Columbia Blue,#B0E2FF,176,226,255,Aqua
Sail,#A4D3EE,164,211,238,Aqua
Polo Blue,#8DB6CD,141,182,205,Teal
Hoki,#607B8B,96,123,139,Grey
Columbia Blue,#87CEFF,135,206,255,Aqua
Aqua,#7EC0EE,126,192,238,Aqua
Seagull,#6CA6CD,108,166,205,Aqua
Wedgewood,#4A708B,74,112,139,Teal
Aqua,#87CEEB,135,206,235,Aqua
Deep Aqua,#00BFFF,0,191,255,Azure
Deep Aqua,#00B2EE,0,178,238,Azure
Pacific Blue,#009ACD,0,154,205,Azure
Teal,#00688B,0,104,139,Teal
Viking,#33A1C9,51,161,201,Aqua
Light Blue,#ADD8E6,173,216,230,Aqua
Light Cyan,#BFEFFF,191,239,255,White
Pale Turquoise,#B2DFEE,178,223,238,Aqua
Morning Glory,#9AC0CD,154,192,205,Aqua
Gothic,#68838B,104,131,139,Teal
Powder Blue,#B0E0E6,176,224,230,Aqua
Columbia Blue,#98F5FF,152,245,255,Aqua
Aqua,#8EE5EE,142,229,238,Aqua
Seagull,#7AC5CD,122,197,205,Aqua
Half Baked,#53868B,83,134,139,Teal
Aqua,#00F5FF,0,245,255,Aqua
Bright Turquoise,#00E5EE,0,229,238,Aqua
Robins Egg Blue,#00C5CD,0,197,205,Aqua
Dark Cyan,#00868B,0,134,139,Teal
Cadet Blue,#5F9EA0,95,158,160,Teal
Dark Turquoise,#00CED1,0,206,209,Aqua
Azure,#F0FFFF,240,255,255,White
Tranquil,#E0EEEE,224,238,238,White
Zumthor,#C1CDCD,193,205,205,Grey
Oslo Grey,#838B8B,131,139,139,Grey
Light Cyan,#E0FFFF,224,255,255,Aqua
Pattens Blue,#D1EEEE,209,238,238,Aqua
Jet Stream,#B4CDCD,180,205,205,Teal
Oslo Grey,#7A8B8B,122,139,139,Grey
Light Cyan,#BBFFFF,187,255,255,Aqua
Pale Turquoise,#AEEEEE,174,238,238,Aqua
Morning Glory,#96CDCD,150,205,205,Aqua
Gothic,#668B8B,102,139,139,Teal
Dark Slate Grey,#2F4F4F,47,79,79,Teal
Electric Blue,#97FFFF,151,255,255,Aqua
Aqua,#8DEEEE,141,238,238,Aqua
Bermuda,#79CDCD,121,205,205,Teal
Half Baked,#528B8B,82,139,139,Teal
Aqua,#00FFFF,0,255,255,Aqua
Aqua,#00EEEE,0,238,238,Aqua
Robins Egg Blue,#00CDCD,0,205,205,Aqua
Dark Cyan,#008B8B,0,139,139,Teal
Teal,#008080,0,128,128,Teal
Medium Turquoise,#48D1CC,72,209,204,Aqua
Light Sea Green,#20B2AA,32,178,170,Teal
Persian Green,#03A89E,3,168,158,Teal
Turquoise,#40E0D0,64,224,208,Aqua
Oslo Grey,#808A87,128,138,135,Grey
Caribbean Green,#00C78C,0,199,140,Spring Green
Aquamarine,#7FFFD4,127,255,212,Aqua
Turquoise Blue,#76EEC6,118,238,198,Aqua
Medium Aquamarine,#66CDAA,102,205,170,Teal
Viridian,#458B74,69,139,116,Teal
Medium Spring Green,#00FA9A,0,250,154,Spring Green
Mint Cream,#F5FFFA,245,255,250,White
Spring Green,#00FF7F,0,255,127,Spring Green
Spring Green,#00EE76,0,238,118,Spring Green
Jade,#00CD66,0,205,102,Green
Pigment Green,#008B45,0,139,69,Green
Medium Sea Green,#3CB371,60,179,113,Green
Screaming Green,#54FF9F,84,255,159,Lime
Turquoise,#4EEE94,78,238,148,Aqua
Emerald ,#43CD80,67,205,128,Spring Green
Sea Green,#2E8B57,46,139,87,Green
Dark Pastel Green,#00C957,0,201,87,Green
Pale Green,#BDFCC9,189,252,201,Lime
Chateau Green,#3D9140,61,145,64,Green
Honey Dew,#F0FFF0,240,255,240,White
Dew,#E0EEE0,224,238,224,White
Paris White,#C1CDC1,193,205,193,Olive
Stack,#838B83,131,139,131,Grey
Dark Sea Green,#8FBC8F,143,188,143,Green
Lime,#C1FFC1,193,255,193,Lime
Tea Green,#B4EEB4,180,238,180,Lime
Chinook,#9BCD9B,155,205,155,Green
Laurel ,#698B69,105,139,105,Green
Pale Green,#98FB98,152,251,152,Lime
Lime,#9AFF9A,154,255,154,Lime
Light Green,#90EE90,144,238,144,Lime
De York,#7CCD7C,124,205,124,Green
Hippie Green,#548B54,84,139,84,Green
Lime Green,#32CD32,50,205,50,Lime Green
Forest Green,#228B22,34,139,34,Green
Lime,#00FF00,0,255,0,Lime
Lime,#00EE00,0,238,0,Lime
Lime,#00CD00,0,205,0,Lime
Green,#008B00,0,139,0,Green
Green,#008000,0,128,0,Green
Green,#006400,0,100,0,Green
Forest Green,#308014,48,128,20,Green
Lawn Green,#7CFC00,124,252,0,Lime
Lime,#7FFF00,127,255,0,Lime
Lawn Green,#76EE00,118,238,0,Lime
Bright Green,#66CD00,102,205,0,Spring Green
Olive Green,#458B00,69,139,0,Green
Green Yellow,#ADFF2F,173,255,47,Lime
Laser Lemon ,#CAFF70,202,255,112,Lime
Mindaro,#BCEE68,188,238,104,Lime
Wild Willow,#A2CD5A,162,205,90,Spring Green
Wasabi,#6E8B3D,110,139,61,Olive
Dark Olive Green,#556B2F,85,107,47,Olive
Olive Drab,#6B8E23,107,142,35,Olive
Green Yellow,#C0FF3E,192,255,62,Lime
Pear,#B3EE3A,179,238,58,Lime
Yellow Green,#9ACD32,154,205,50,Lime
Olive Drab,#698B22,105,139,34,Olive
Ivory,#FFFFF0,255,255,240,White
Sugarcane,#EEEEE0,238,238,224,White
Quill Grey,#CDCDC1,205,205,193,Grey
Jumbo,#8B8B83,139,139,131,Grey
Beige,#F5F5DC,245,245,220,White
Light Yellow,#FFFFE0,255,255,224,White
Orchid White,#EEEED1,238,238,209,White
Moon Mist,#CDCDB4,205,205,180,White
Schist,#8B8B7A,139,139,122,Grey
Light Goldenrod Yellow,#FAFAD2,250,250,210,White
Yellow,#FFFF00,255,255,0,Yellow
Lime Yellow,#EEEE00,238,238,0,Yellow
La Rioja,#CDCD00,205,205,0,Yellow
Olive,#8B8B00,139,139,0,Olive
Sapphire,#808069,128,128,105,Olive
Olive,#808000,128,128,0,Olive
Dark Khaki,#BDB76B,189,183,107,Yellow
Yellow,#FFF68F,255,246,143,Yellow
Texas,#EEE685,238,230,133,Yellow
Winter Hazel,#CDC673,205,198,115,Yellow
Clay Creek,#8B864E,139,134,78,Olive
Khaki,#F0E68C,240,230,140,Yellow
Pale Goldenrod,#EEE8AA,238,232,170,Yellow
Lemon Chiffon,#FFFACD,255,250,205,White
Spring Sun,#EEE9BF,238,233,191,White
Parchment,#CDC9A5,205,201,165,Yellow
Schist,#8B8970,139,137,112,Olive
Cream Brulee,#FFEC8B,255,236,139,Yellow
Flax,#EEDC82,238,220,130,Yellow
Putty,#CDBE70,205,190,112,Yellow
Shadow,#8B814C,139,129,76,Olive
Manz,#E3CF57,227,207,87,Yellow
Gold,#FFD700,255,215,0,Yellow
Golden Poppy,#EEC900,238,201,0,Yellow
La Rioja,#CDAD00,205,173,0,Yellow
Olive,#8B7500,139,117,0,Olive
Cornsilk,#FFF8DC,255,248,220,White
Half and Half,#EEE8CD,238,232,205,White
Parchment,#CDC8B1,205,200,177,White
Friar Grey,#8B8878,139,136,120,Grey
Galliano,#DAA520,218,165,32,Yellow
Sunglow,#FFC125,255,193,37,Yellow
Bright Sun,#EEB422,238,180,34,Yellow
Buddha Gold,#CD9B1D,205,155,29,Orange
Golden Brown,#8B6914,139,105,20,Brown
Dark Goldenrod,#B8860B,184,134,11,Orange
Dark Tangerine,#FFB90F,255,185,15,Orange
Gamboge,#EEAD0E,238,173,14,Orange
Dark Goldenrod,#CD950C,205,149,12,Yellow
Olive,#8B6508,139,101,8,Brown
Orange,#FFA500,255,165,0,Orange
Orange Peel,#EE9A00,238,154,0,Orange
Mango Tango,#CD8500,205,133,0,Orange
Olive,#8B5A00,139,90,0,Brown
Floral White,#FFFAF0,255,250,240,White
Old Lace,#FDF5E6,253,245,230,White
Wheat,#F5DEB3,245,222,179,White
Moccasin,#FFE7BA,255,231,186,White
Astra,#EED8AE,238,216,174,White
Vanilla,#CDBA96,205,186,150,Brown
Granite Green,#8B7E66,139,126,102,Brown
Moccasin,#FFE4B5,255,228,181,White
Papaya Whip,#FFEFD5,255,239,213,White
Blanched Almond,#FFEBCD,255,235,205,White
Navajo White,#FFDEAD,255,222,173,Orange
Dairy Cream,#EECFA1,238,207,161,Orange
Tan,#CDB38B,205,179,139,Brown
Clay Creek,#8B795E,139,121,94,Brown
Oasis,#FCE6C9,252,230,201,White
Tan,#D2B48C,210,180,140,Brown
Hacienda,#9C661F,156,102,31,Brown
Dark Tangerine,#FF9912,255,153,18,Orange
Antique White,#FAEBD7,250,235,215,White
Papaya Whip,#FFEFDB,255,239,219,White
Solitaire,#EEDFCC,238,223,204,White
Stark White,#CDC0B0,205,192,176,White
Schooner,#8B8378,139,131,120,Grey
Burly Wood,#DEB887,222,184,135,Orange
Caramel,#FFD39B,255,211,155,Orange
Marzipan,#EEC591,238,197,145,Orange
Cameo,#CDAA7D,205,170,125,Brown
Shadow,#8B7355,139,115,85,Brown
Bisque,#FFE4C4,255,228,196,White
Champagne,#EED5B7,238,213,183,White
Vanilla,#CDB79E,205,183,158,White
Squirrel,#8B7D6B,139,125,107,Brown
Porsche,#E3A869,227,168,105,Orange
Carrot Orange,#ED9121,237,145,33,Orange
Dark Orange,#FF8C00,255,140,0,Orange
Dark Orange,#FF7F00,255,127,0,Orange
Mango Tango,#EE7600,238,118,0,Orange
Tenne,#CD6600,205,102,0,Orange
Olive,#8B4500,139,69,0,Brown
Dark Orange,#FF8000,255,128,0,Orange
Koromiko,#FFA54F,255,165,79,Orange
Sea Buckthorn,#EE9A49,238,154,73,Orange
Peru,#CD853F,205,133,63,Orange
Rusty Nail,#8B5A2B,139,90,43,Brown
Linen,#FAF0E6,250,240,230,White
Peach Puff,#FFDAB9,255,218,185,White
Desert Sand,#EECBAD,238,203,173,White
Cashmere,#CDAF95,205,175,149,Brown
Sand Dune,#8B7765,139,119,101,Brown
Seashell,#FFF5EE,255,245,238,White
Soapstone,#EEE5DE,238,229,222,White
Westar,#CDC5BF,205,197,191,White
Suva Grey,#8B8682,139,134,130,Grey
Sandy Brown,#F4A460,244,164,96,Orange
Chocolate,#C76114,199,97,20,Orange
Chocolate,#D2691E,210,105,30,Orange
Pumpkin,#FF7F24,255,127,36,Orange
Carrot Orange,#EE7621,238,118,33,Orange
Chocolate,#CD661D,205,102,29,Orange
Saddle Brown,#8B4513,139,69,19,Brown
Bokara ,#292421,41,36,33,Black
Burnt Orange,#FF7D40,255,125,64,Orange
Safety Orange,#FF6103,255,97,3,Orange
Saddle Brown,#8A360F,138,54,15,Maroon
Sienna,#A0522D,160,82,45,Maroon
Coral,#FF8247,255,130,71,Orange
Flamenco,#EE7942,238,121,66,Orange
Ecstasy,#CD6839,205,104,57,Orange
Fire,#8B4726,139,71,38,Brown
Light Salmon,#FFA07A,255,160,122,Tulip
Dark Salmon,#EE9572,238,149,114,Tulip
Burning Sand,#CD8162,205,129,98,Tulip
Ironstone,#8B5742,139,87,66,Brown
Coral,#FF7F50,255,127,80,Orange
Orange Red,#FF4500,255,69,0,Orange
Orange Red,#EE4000,238,64,0,Orange
Tenne,#CD3700,205,55,0,Red
Dark Red,#8B2500,139,37,0,Maroon
Bakers Chocolate,#5E2612,94,38,18,Brown
Dark Salmon,#E9967A,233,150,122,Tulip
Atomic Tangerine,#FF8C69,255,140,105,Tulip
Crusta,#EE8262,238,130,98,Orange
Japonica,#CD7054,205,112,84,Tulip
Parl,#8B4C39,139,76,57,Brown
Bittersweet,#FF7256,255,114,86,Tulip
Burnt Sienna,#EE6A50,238,106,80,Orange
Dark Coral,#CD5B45,205,91,69,Orange
Crab Apple,#8B3E2F,139,62,47,Maroon
Burnt Umber,#8A3324,138,51,36,Maroon
Tomato,#FF6347,255,99,71,Tulip
Burnt Sienna,#EE5C42,238,92,66,Tulip
Trinidad,#CD4F39,205,79,57,Tulip
Burnt Umber,#8B3626,139,54,38,Maroon
Salmon,#FA8072,250,128,114,Tulip
Misty Rose,#FFE4E1,255,228,225,White
Potpourri,#EED5D2,238,213,210,White
Cold Turkey,#CDB7B5,205,183,181,White
Hurricane,#8B7D7B,139,125,123,Brown
Snow,#FFFAFA,255,250,250,White
Whisper,#EEE9E9,238,233,233,White
Very Light Grey,#CDC9C9,205,201,201,White
Suva Grey,#8B8989,139,137,137,Grey
Rosy Brown,#BC8F8F,188,143,143,Tulip
Your Pink,#FFC1C1,255,193,193,Tulip
Beauty Bush,#EEB4B4,238,180,180,Tulip
Eunry,#CD9B9B,205,155,155,Tulip
Ferra,#8B6969,139,105,105,Brown
Light Coral,#F08080,240,128,128,Tulip
Indian Red,#CD5C5C,205,92,92,Red
Bittersweet,#FF6A6A,255,106,106,Tulip
Burnt Sienna,#EE6363,238,99,99,Tulip
Tall Poppy,#8B3A3A,139,58,58,Maroon
Mandy,#CD5555,205,85,85,Red
Blood Red,#A52A2A,165,42,42,Red
Coral Red,#FF4040,255,64,64,Red
Cinnabar,#EE3B3B,238,59,59,Red
Persian Red,#CD3333,205,51,51,Red
Mandarian Red,#8B2323,139,35,35,Maroon
Firebrick,#B22222,178,34,34,Red
Red Orange,#FF3030,255,48,48,Red
Alizarin,#EE2C2C,238,44,44,Red
Cardinal,#CD2626,205,38,38,Red
Falu Red,#8B1A1A,139,26,26,Maroon
Red,#FF0000,255,0,0,Red
Red,#EE0000,238,0,0,Red
Free Speech Red,#CD0000,205,0,0,Red
Dark Red,#8B0000,139,0,0,Red
Maroon,#800000,128,0,0,Maroon
Rouge,#8E388E,142,56,142,Electric Indigo
Moody Blue,#7171C6,113,113,198,Slate Blue
Glacier,#7D9EC0,125,158,192,Azure
Blue Chill,#388E8E,56,142,142,Teal
De York,#71C671,113,198,113,Spring Green
Highball,#8E8E38,142,142,56,Olive
Kangaroo,#C5C1AA,197,193,170,Grey
Contessa,#C67171,198,113,113,Tulip
Mortar,#555555,85,85,85,Grey
Nero,#1E1E1E,30,30,30,Black
Nero,#282828,40,40,40,Black
Mortar,#515151,81,81,81,Grey
Mortar,#5B5B5B,91,91,91,Grey
Grey,#848484,132,132,132,Grey
Suva Grey,#8E8E8E,142,142,142,Grey
Dark Grey,#AAAAAA,170,170,170,Grey
Silver,#B7B7B7,183,183,183,Grey
Silver,#C1C1C1,193,193,193,Grey
White Smoke,#EAEAEA,234,234,234,White
White Smoke,#F4F4F4,244,244,244,White
White,#FFFFFF,255,255,255,White
White Smoke,#F5F5F5,245,245,245,White
Gainsboro,#DCDCDC,220,220,220,White
Gainsboro,#D3D3D3,211,211,211,White
Silver,#C0C0C0,192,192,192,Grey
Dark Grey,#A9A9A9,169,169,169,Grey
Grey,#808080,128,128,128,Grey
Dim Grey,#696969,105,105,105,Grey
Black,#000000,0,0,0,Black
White,#FCFCFC,252,252,252,White
White,#FAFAFA,250,250,250,White
White Smoke,#F7F7F7,247,247,247,White
White Smoke,#F2F2F2,242,242,242,White
White Smoke,#F0F0F0,240,240,240,White
White Smoke,#EDEDED,237,237,237,White
White Smoke,#EBEBEB,235,235,235,White
Gainsboro,#E8E8E8,232,232,232,White
Gainsboro,#E5E5E5,229,229,229,White
Gainsboro,#E3E3E3,227,227,227,White
Gainsboro,#E0E0E0,224,224,224,White
Gainsboro,#DEDEDE,222,222,222,White
Gainsboro,#DBDBDB,219,219,219,White
Gainsboro,#D9D9D9,217,217,217,White
Gainsboro,#D6D6D6,214,214,214,White
Gainsboro,#D4D4D4,212,212,212,White
Gainsboro,#D1D1D1,209,209,209,White
Light Grey,#CFCFCF,207,207,207,White
Light Grey,#CCCCCC,204,204,204,White
Light Grey,#C9C9C9,201,201,201,White
Light Grey,#C7C7C7,199,199,199,White
Silver,#C4C4C4,196,196,196,Grey
Silver,#C2C2C2,194,194,194,Grey
Silver,#BFBFBF,191,191,191,Grey
Silver,#BDBDBD,189,189,189,Grey
Silver,#BABABA,186,186,186,Grey
Silver,#B8B8B8,184,184,184,Grey
Silver,#B5B5B5,181,181,181,Grey
Grey,#B3B3B3,179,179,179,Grey
Grey,#B0B0B0,176,176,176,Grey
Grey,#ADADAD,173,173,173,Grey
Grey,#ABABAB,171,171,171,Grey
Grey,#A8A8A8,168,168,168,Grey
Grey,#A6A6A6,166,166,166,Grey
Grey,#A3A3A3,163,163,163,Grey
Grey,#A1A1A1,161,161,161,Grey
Grey,#9E9E9E,158,158,158,Grey
Nobel,#9C9C9C,156,156,156,Grey
Nobel,#999999,153,153,153,Grey
Shady Lady,#969696,150,150,150,Grey
Suva Grey,#949494,148,148,148,Grey
Suva Grey,#919191,145,145,145,Grey
Suva Grey,#8F8F8F,143,143,143,Grey
Suva Grey,#8C8C8C,140,140,140,Grey
Suva Grey,#8A8A8A,138,138,138,Grey
Suva Grey,#878787,135,135,135,Grey
Grey,#858585,133,133,133,Grey
Grey,#828282,130,130,130,Grey
Grey,#7F7F7F,127,127,127,Grey
Grey,#7D7D7D,125,125,125,Grey
Grey,#7A7A7A,122,122,122,Grey
Grey,#787878,120,120,120,Grey
Empress,#757575,117,117,117,Grey
Empress,#737373,115,115,115,Grey
Dim Grey,#707070,112,112,112,Grey
Dim Grey,#6E6E6E,110,110,110,Grey
Dim Grey,#6B6B6B,107,107,107,Grey
Dim Grey,#696969,105,105,105,Grey
Dim Grey,#666666,102,102,102,Grey
Dim Grey,#636363,99,99,99,Grey
Dim Grey,#616161,97,97,97,Grey
Dim Grey,#5E5E5E,94,94,94,Grey
Mortar,#5C5C5C,92,92,92,Grey
Mortar,#595959,89,89,89,Grey
Mortar,#575757,87,87,87,Grey
Mortar,#545454,84,84,84,Grey
Mortar,#525252,82,82,82,Grey
Matterhorn,#4F4F4F,79,79,79,Grey
Charcoal,#4D4D4D,77,77,77,Black
Charcoal,#4A4A4A,74,74,74,Black
Charcoal,#474747,71,71,71,Black
Charcoal,#454545,69,69,69,Black
Charcoal,#424242,66,66,66,Black
Charcoal,#404040,64,64,64,Black
Eclipse,#3D3D3D,61,61,61,Black
Eclipse,#3B3B3B,59,59,59,Black
Eclipse,#383838,56,56,56,Black
Gondola,#363636,54,54,54,Black
Night Rider,#333333,51,51,51,Black
Night Rider,#303030,48,48,48,Black
Night Rider,#2E2E2E,46,46,46,Black
Nero,#2B2B2B,43,43,43,Black
Nero,#292929,41,41,41,Black
Nero,#262626,38,38,38,Black
Nero,#242424,36,36,36,Black
Nero,#212121,33,33,33,Black
Nero,#1F1F1F,31,31,31,Black
Nero,#1C1C1C,28,28,28,Black
Nero,#1A1A1A,26,26,26,Black
Nero,#171717,23,23,23,Black
Nero,#141414,20,20,20,Black
Black,#121212,18,18,18,Black
Black,#0F0F0F,15,15,15,Black
Black,#0D0D0D,13,13,13,Black
Black,#0A0A0A,10,10,10,Black
Black,#080808,8,8,8,Black
Black,#050505,5,5,5,Black
Black,#030303,3,3,3,Black
Navy,#171743,23,23,67,Navy
Navy,#272753,39,39,83,Navy
Venetian Red,#CC0216,204,2,22,Red
Fire Engine Red,#DD1719,221,23,25,Red
Venetian Red,#CC0518,204,5,24,Red
Venetian Red,#CC0417,204,4,23,Red
Mortar,#565656,86,86,86,Grey
Grey,#A7A7A7,167,167,167,Grey
Eclipse,#3C3C3C,60,60,60,Black
Eclipse,#393939,57,57,57,Black
Mortar,#585858,88,88,88,Grey
Dim Grey,#6A6A6A,106,106,106,Grey
Bright Red,#982A2A,152,42,42,Maroon
Charcoal,#4C4C4C,76,76,76,Black
Mortar,#535353,83,83,83,Grey
Grey,#818181,129,129,129,Grey
Polo Blue,#8BB3CD,139,179,205,Aqua
French Pass,#97C3DD,151,195,221,Aqua
Quill Grey,#C7C7C1,199,199,193,Grey
Mercury,#D8D3D3,216,211,211,White
Rolling Stone,#687879,104,120,121,Grey
Night Rider,#313131,49,49,49,Black
Charcoal,#444444,68,68,68,Black
Eclipse,#3A3A3A,58,58,58,Black
Dark Grey,#B4B4B4,180,180,180,Grey
Silver,#C6C6C6,198,198,198,Grey
Silver,#B9B9B9,185,185,185,Grey
Gondola,#343434,52,52,52,Black
Charcoal,#494949,73,73,73,Black
Nobel,#9A9A9A,154,154,154,Grey
Nobel,#9B9B9B,155,155,155,Grey
Night Rider,#323232,50,50,50,Black
Light Slate Grey,#748298,116,130,152,Grey
Chathams Blue,#2A596D,42,89,109,Teal
Nero,#181818,24,24,24,Black
Suva Grey,#8C8A88,140,138,136,Grey
Pale Slate,#B6B5B4,182,181,180,Grey
Charcoal,#3E3E3E,62,62,62,Black
Comet,#656676,101,102,118,Grey
Lavender White,#CBD6DC,203,198,220,White
Light Grey,#D7D7D7,215,215,215,Grey
Manatee,#838999,131,137,153,Grey
Russet,#8B581D,139,88,29,Yellow
Nero,#131313,19,19,19,Black
Nero,#161616,22,22,22,Black
Nero,#191919,25,25,25,Black
Nero,#272727,39,39,39,Black
Pale Slate,#B8B7B6,184,183,182,Grey
Denim,#1767BD,23,103,189,Azure
Metallic Copper,#6C3A33,108,58,51,Maroon
Caput Mortuum,#5D2822,93,40,34,Maroon
Zircon,#D6DDDD,214,221,221,Grey
Nero,#2A2A2A,42,42,42,Black
Stark White,#D9D2C6,217,210,198,White
Grey,#888C88,136,140,136,Grey
Loblolly,#B8BAB8,184,186,184,Grey
Matterhorn,#4E4E4E,78,78,78,Grey
Echo Blue,#A5B5CA,165,181,202,Grey
Mariner,#466A9B,70,106,155,Azure
Mariner,#39599B,57,89,155,Azure
Midnight Blue,#142B75,20,43,117,Navy
Steel Blue,#457CB7,69,124,183,Azure
Persian Red,#CD3936,205,57,54,Red
Catalina Blue,#283858,40,56,88,Navy
Suva Grey,#939292,147,146,146,Grey
Gumbo,#718686,113,134,134,Teal
Suva Grey,#8D8D8D,141,141,141,Grey
Black,#343442,52,52,66,Black
Charcoal,#484848,72,72,72,Black
Grey,#595767,89,87,103,Grey
Teal,#546979,84,105,121,Teal
Black,#151523,21,21,35,Black
Black,#161633,22,22,51,Black
Grey,#9595A7,149,149,167,Grey
Black,#252525,37,37,37,Black
White,#CDC9B8,205,201,184,White
White,#CAC6C5,202,198,197,White
Gothic,#668DAD,102,141,173,Azure
Electric Indigo,#7F03FC,127,3,252,Electric Indigo
Electric Indigo,#7E03FB,126,3,251,Electric Indigo
Tyrian Purple,#400813,64,8,19,Maroon
Paprika,#782A3A,120,42,58,Maroon
Pohutukawa,#65181A,101,24,26,Maroon
Turmeric,#B09343,176,147,67,Yellow
Very Dark Navy,#11192D,17,25,45,Navy
Bright Sun,#E9B021,233,175,33,Yellow
Orange Roughy,#AE5539,174,85,57,Orange
Bordeaux,#561D2E,86,29,46,Maroon
Teak,#A6934D,166,147,77,Yellow
Firebrick,#C11D1A,193,29,26,Red
Falu Red,#631111,99,17,17,Maroon
Allports,#206D94,32,109,148,Teal
Gorse,#F7DE33,247,222,51,Yellow
Cinnabar,#DC3545,220,53,69,Red
Rob Roy,#DAAF4F,218,175,79,Yellow
Galliano,#DFA720,223,167,32,Yellow
Cinnabar,#E24D41,226,77,65,Red
Raven,#69727C,105,114,124,Grey
Manatee,#87909A,135,144,154,Grey
Peat,#776E54,119,110,84,Brown
Denim,#1570B9,21,112,185,Azure
Firebrick,#C83924,200,57,36,Red
Cinnabar,#DF4741,223,71,65,Red
Celery,#A8C24B,168,194,75,Spring Green
Barberry,#D7BA24,215,186,36,Yellow
Blood Red,#9F2C25,159,44,37,Red
Old Gold,#D2C142,210,193,66,Yellow
Blush,#BA5869,186,88,105,Red
Equator,#DCBF60,220,191,96,Yellow
Ming,#3D6878,61,104,120,Teal
Falu Red,#8A122A,138,18,42,Maroon
Hippie Green,#528639,82,134,57,Green
Fire Engine Red,#CF1C1C,207,28,28,Red
Pohutukawa,#4A1015,74,16,21,Maroon
Alizarin,#DE2346,222,35,70,Red
Lemon,#F4E10D,244,225,13,Yellow
Energy Yellow,#F7D948,247,217,72,Yellow
Energy Yellow,#F4D344,244,211,68,Yellow
Valencia,#D3495A,211,73,90,Red
Carrot Orange,#E67C1A,230,124,26,Orange
Alizarin,#E62D17,230,45,23,Red
Harley Davidson,#D02A16,208,42,22,Red
Denim,#0A70C7,10,112,199,Azure
Mango Tango,#E3650F,227,101,15,Orange
Laser,#CBB360,203,179,96,Yellow
Dark Cerulean,#0B427C,11,66,124,Azure
Firebrick,#AD181A,173,24,26,Red
Burnt Sienna,#ED6854,237,104,84,Orange
Sun,#EE7B38,238,123,56,Orange
Firebrick,#B22A20,178,42,32,Red
Mariner,#3B5CA3,59,92,163,Azure
Mojo,#954B3E,149,75,62,Brown
Orange Red,#F13E1A,241,62,26,Orange
Fern,#67BD69,103,189,105,Spring Green
Spicy Mix,#8F5F4F,143,95,79,Brown
Firebrick,#B9331D,185,51,29,Red
Cerulean Blue,#2163B2,33,99,178,Azure
Clay Creek,#7D8750,125,135,80,Olive
Roti,#BA9743,186,151,67,Yellow
Myrtle,#29491C,41,73,28,Green
Glade Green,#5D814C,93,129,76,Green
Yellow,#FCF501,252,245,1,Yellow
Barberry,#DEC626,222,198,38,Yellow
Jazzberry Jam,#A3102D,163,16,45,Red
Gamboge,#DFA310,223,163,16,Yellow
Valencia,#DA5948,218,89,72,Tulip
Burnt Crimson,#562121,86,33,33,Maroon
Firebrick,#AA2312,170,35,18,Red
Ochre,#C08621,192,134,33,Orange
Metallic Gold,#D3A744,211,167,68,Yellow
Cornflower Blue,#549EE4,84,158,228,Azure
Falu Red,#720E1B,114,14,27,Maroon
Mandy,#C64053,198,64,83,Red
Scarlet,#E02408,224,36,8,Red
Curious Blue,#3A8FCA,58,143,202,Azure
Mineral Green,#56675D,86,103,93,Olive
Sahara,#AB9E22,171,158,34,Yellow
Lemon Ginger,#A28E2C,162,142,44,Yellow
Lemon,#F9E71D,249,231,29,Yellow
Green Smoke,#A2A355,162,163,85,Olive
Sunglow,#F2BF2D,242,191,45,Yellow
Alizarin,#EF2528,239,37,40,Red
Cannon Pink,#8E5274,142,82,116,Purple
Pelorous,#2093CE,32,147,206,Azure
Rustic Red,#3A1923,58,25,35,Maroon
Kashmir Blue,#556D92,85,109,146,Slate Blue
Alizarin,#DD2E2D,221,46,45,Red
Copper Rust,#924950,146,73,80,Maroon
Golden Orange,#FCAA02,252,170,2,Orange
Jaffa,#DD7C43,221,124,67,Orange
Cinnabar,#DC432C,220,67,44,Red
Midnight Blue,#112249,17,34,73,Navy
Tango,#CF6A31,207,106,49,Orange
Bordeaux,#41171B,65,23,27,Maroon
Falu Red,#88251C,136,37,28,Maroon
Confetti,#E2CA49,226,202,73,Yellow
Lochmara,#345AAE,52,90,174,Azure
Bronzetone,#424B2A,66,75,42,Olive
Green Smoke,#8F9D60,143,157,96,Olive
Sunflower,#DFB21A,223,178,26,Yellow
Gamboge,#E8AF07,232,175,7,Yellow
Deep Sea,#129567,18,149,103,Green
Hacienda,#A28124,162,129,36,Yellow
Camouflage Green,#6E8264,110,130,100,Green
Sushi,#76A238,118,162,56,Green
Java,#238E90,35,142,144,Teal
Chelsea Cucumber,#88AE57,136,174,87,Green
Valencia,#D55A48,213,90,72,Tulip
Buddha Gold,#BF8D17,191,141,23,Yellow
Mandy,#CF4758,207,71,88,Red
Apple Green,#52B544,82,181,68,Spring Green
Raw Sienna,#D6934B,214,147,75,Orange
Curious Blue,#307EB6,48,126,182,Azure
Flamingo,#DE554A,222,85,74,Orange
Venetian Red,#E60912,230,9,18,Red
Slate Blue,#6A53C5,106,83,197,Slate Blue
Waikawa,#5E7B93,94,123,147,Teal
Fuego,#CECE29,206,206,41,Yellow
Carrot Orange,#E96B13,233,107,19,Orange
Hippie Blue,#508BA7,80,139,167,Teal
Midnight Blue,#0F1641,15,22,65,Navy
Denim,#138ABA,19,138,186,Azure
Danube,#5B8ABA,91,138,186,Azure
Firebrick,#BC1F26,188,31,38,Red
Red Oxide,#5D2120,93,33,32,Maroon
Lucky,#B1931A,177,147,26,Yellow
East Bay,#566179,86,97,121,Slate Blue
Kelly Green,#58D11B,88,209,27,Spring Green
Jewel,#09441E,9,68,30,Green
Verdun Green,#212A0C,33,42,12,Olive
Baker,#4B1510,75,21,16,Brown
Shuttle Grey,#5B626E,91,98,110,Grey
Storm Grey,#79808C,121,128,140,Grey
Bordeaux,#451A18,69,26,24,Maroon
Fun Blue,#304084,48,64,132,Blue
Falu Red,#6F1817,111,24,23,Maroon
Dark Goldenrod,#B79807,183,152,7,Yellow
Blue Whale,#11192D,17,25,45,Navy
Comet,#596277,89,98,119,Grey
Camelot,#873F52,135,63,82,Maroon
Rustic Red,#39171A,57,23,26,Maroon
Valhalla,#282D3C,40,45,60,Navy
Mortar,#5A5A5A,90,90,90,Grey
Fire Engine Red,#C2171B,194,23,27,Red
Steel Blue,#4C7BB1,76,123,177,Azure
Mortar,#585759,88,87,89,Grey
Midnight Express,#222639,34,38,57,Navy
Valhalla,#26283A,38,40,58,Navy
Rustic Red,#35171F,53,23,31,Maroon
Bayoux,#5F717E,95,113,126,Grey
Light Slate Grey,#7D8F9C,125,143,156,Grey
Light Slate Grey,#7C8A93,124,138,147,Grey
Burnt Crimson,#592321,89,35,33,Maroon
Rock Spray,#A14228,161,66,40,Orange
Kashmir Blue,#525F87,82,95,135,Slate Blue
Tosca,#76434D,118,67,77,Maroon
Bastille,#2B2D34,43,45,52,Black
Shuttle Grey,#64686D,100,104,109,Grey
Russian Black,#1D1E21,29,30,33,Black
Waikawa Grey,#62758F,98,117,143,Grey
Carmine,#B8373F,184,55,63,Red
Masala,#544F48,84,79,72,Grey
Chambray,#506478,80,100,120,Blue
Smoky,#59585E,89,88,94,Grey
Shuttle Grey,#595F66,89,95,102,Grey
Comet,#6B687D,107,104,125,Grey
Mauve Taupe,#965D77,150,93,119,Purple
Tawny Port,#5A394B,90,57,75,Purple
Venetian Red,#AB0B13,171,11,19,Red
Pelorous,#2F85C2,47,133,194,Azure
Shuttle Grey,#5A5F67,90,95,103,Grey
Storm Dust,#61605E,97,96,94,Grey
Stonewall,#7D7261,125,114,97,Brown
Dingley,#6E8940,110,137,64,Green
Tyrian Purple,#3D0E0E,61,14,14,Maroon
Mandarian Red,#871F21,135,31,33,Maroon
Dim Grey,#656160,101,97,96,Grey
Tangaroa,#131F2A,19,31,42,Black
Ironside Grey,#716C66,113,108,102,Grey
Bayoux,#65737E,101,115,126,Grey
Comet,#5E5E79,94,94,121,Grey
Bayoux,#616C79,97,108,121,Grey
Curious Blue,#407FB3,64,127,179,Azure
Casablanca,#F1B14B,241,177,75,Orange
Comet,#5C6677,92,102,119,Grey
Persian Red,#D12E29,209,46,41,Red
Fiord,#4C5768,76,87,104,Grey
Dolphin,#6A6A71,106,106,113,Grey
Oxford Blue,#2A343C,42,52,60,Black
Rose Taupe,#8A635A,138,99,90,Brown
Cardinal,#C22337,194,35,55,Red
Revolver,#39353B,57,53,59,Black
Blue Whale,#0B162A,11,22,42,Navy
Scorpion,#5F5B5D,95,91,93,Grey
Fire Bush,#DE8F3D,222,143,61,Orange
Airforce Blue,#59829E,89,130,158,Azure
Venetian Red,#B00E28,176,14,40,Red
Olive Green,#A7B85D,167,184,93,Olive
Rustic Red,#461D1E,70,29,30,Maroon
Shuttle Grey,#636970,99,105,112,Grey
Cannon Pink,#885262,136,82,98,Maroon
Lynch,#66738B,102,115,139,Grey
Amaranth,#E11C61,225,28,97,Red
Persian Red,#C32C2E,195,44,46,Red
Bright Grey,#57595E,87,89,94,Grey
Chestnut,#B34B46,179,75,70,Maroon
Tangaroa,#192034,25,32,52,Black
Chambray,#4A5981,74,89,129,Blue
Bordeaux,#47201D,71,32,29,Maroon
Pine Cone,#766254,118,98,84,Brown
Black Pearl,#15181E,21,24,30,Black
Mid Grey,#646566,100,101,102,Grey
Midnight Blue,#212A71,33,42,113,Navy
Mako,#505252,80,82,82,Grey
Licorice,#2D3541,45,53,65,Black
Russian Black,#17191D,23,25,29,Black
Dim Grey,#616161,97,97,97,Grey
Seal Brown,#2D0C0C,45,12,12,Maroon
Dark Goldenrod,#A86E0C,168,110,12,Yellow
Bright Sun,#F0B633,240,182,51,Yellow
East Bay,#4C586F,76,88,111,Slate Blue
Midnight Express,#151A29,21,26,41,Navy
Airforce Blue,#5879AE,88,121,174,Azure
Regal Blue,#1D3256,29,50,86,Blue
Mamba,#737075,115,112,117,Grey
Kilamanjaro,#423C39,66,60,57,Black
Well Read,#913C34,145,60,52,Maroon
Tundora,#625A57,98,90,87,Grey
Dodger Blue,#4287F5,66,135,245,Azure
Cyprus,#144750,20,71,80,Teal
Light Sky Blue,#8CEFF7,140,239,247,Aqua
Danube,#6580BC,101,128,188,Azure
Sharon Rose,#AA5A29,170,90,41,Orange
Dodger Blue,#3980F2,57,128,242,Azure
Fern Green,#55753C,85,117,60,Green
Windsor,#650D7A,101,13,122,Purple
Shamrock,#2DC575,45,197,117,Spring Green
Royal Blue,#3474E4,52,116,228,Azure
Candlelight,#FBD112,251,209,18,Yellow
Whiskey,#CE9D64,206,157,100,Orange
Fuchsia Pink,#CB60C8,203,96,200,Light Pink
Paradiso,#2F7C6E,47,124,110,Teal
Cerise,#DA31CD,218,49,205,Magenta
Deco,#D4DE96,212,222,150,Olive
Blue Violet,#4845B5,72,69,181,Slate Blue
Evening Sea,#023F47,2,63,71,Teal
Bouquet,#B68BAF,182,139,175,Light Pink
Carnation Pink,#FF9DCA,255,157,202,Light Pink
Manhattan,#F6C39C,246,195,156,Orange
Lime,#15FC2C,21,252,44,Lime
Cardinal Pink,#8F0249,143,2,73,Deep Pink
Lima,#7ACE1D,122,206,29,Lime
Starship,#E1F361,225,243,97,Yellow
Apple Blossom,#AB483F,171,72,63,Maroon
Mikado,#392E15,57,46,21,Brown
Hokey Pokey,#CDB326,205,179,38,Yellow
Persian Blue,#253CD4,37,60,212,Blue
Dark Tan,#6E111D,110,17,29,Maroon
Atlantis,#97CC2D,151,204,45,Spring Green
Red Violet,#B30B86,179,11,134,Magenta
Blue Marguerite,#8269CB,130,105,203,Electric Indigo
Picton Blue,#42BDE5,66,189,229,Aqua
Persian Blue,#3012C2,48,18,194,Blue
Torea Bay,#111EC0,17,30,192,Blue
Sandrift,#B19889,177,152,137,Brown
Thunderbird,#BC321E,188,50,30,Red
Conifer,#ADD353,173,211,83,Spring Green
Havelock,#459DD9,69,157,217,Aqua
Tumbleweed,#E2AD93,226,173,147,Orange
Purple,#8907A5,137,7,165,Purple
Chambray,#394B9F,57,75,159,Blue
Purple Heart,#8633B6,134,51,182,Electric Indigo
Science Blue,#0436DE,4,54,222,Blue
Riptide,#8EE9C3,142,233,195,Aqua
Shiraz,#B30E17,179,14,23,Red
Wisteria,#9A69B5,154,105,181,Purple
Java,#23BCBF,35,188,191,Aqua
Abbey,#4C4F56,76,79,86,Grey
Acadia,#1B1404,27,20,4,Black
Acapulco,#7CB0A1,124,176,161,Green
Aero Blue,#C9FFE5,201,255,229,Aqua
Affair,#714693,113,70,147,Electric Indigo
Akaroa,#D4C4A8,212,196,168,Brown
Alabaster,#FAFAFA,250,250,250,White
Albescent,#F5E9D3,245,233,211,White
Algae Green,#93DFB8,147,223,184,Spring Green
Alice Blue,#F0F8FF,240,248,255,White
Allports,#0076A3,0,118,163,Azure
Almond,#EED9C4,238,217,196,Brown
Almond Frost,#907B71,144,123,113,Brown
Alpine,#AF8F2C,175,143,44,Yellow
Alto,#DBDBDB,219,219,219,White
Aluminium,#A9ACB6,169,172,182,Grey
Amaranth,#E52B50,229,43,80,Red
Amazon,#3B7A57,59,122,87,Green
Amber,#FFBF00,255,191,0,Yellow
Americano,#87756E,135,117,110,Brown
Amethyst,#9966CC,153,102,204,Electric Indigo
Amethyst Smoke,#A397B4,163,151,180,Electric Indigo
Amour,#F9EAF3,249,234,243,White
Amulet,#7B9F80,123,159,128,Green
Anakiwa,#9DE5FF,157,229,255,Aqua
Antique Brass,#C88A65,200,138,101,Brown
Antique Bronze,#704A07,112,74,7,Brown
Anzac,#E0B646,224,182,70,Yellow
Apache,#DFBE6F,223,190,111,Yellow
Apple,#4FA83D,79,168,61,Green
Apple Blossom,#AF4D43,175,77,67,Maroon
Apricot,#EB9373,235,147,115,Orange
Apricot Peach,#FBCEB1,251,206,177,Orange
Apricot White,#FFFEEC,255,254,236,White
Aqua Deep,#014B43,1,75,67,Teal
Aqua Forest,#5FA777,95,167,119,Green
Aqua Haze,#EDF5F5,237,245,245,White
Aqua Island,#A1DAD7,161,218,215,Aqua
Aqua Spring,#EAF9F5,234,249,245,White
Aqua Squeeze,#E8F5F2,232,245,242,White
Aquamarine Blue,#71D9E2,113,217,226,Aqua
Arapawa,#110C6C,17,12,108,Navy
Armadillo,#433E37,67,62,55,Brown
Arrowtown,#948771,148,135,113,Brown
Ash,#C6C3B3,198,195,181,Grey
Asparagus,#7BA05B,123,160,191,Green
Asphalt,#130A06,19,10,6,Black
Astra,#FAEAB9,250,234,185,Yellow
Astral,#327DA0,50,125,160,Azure
Astronaut,#283A77,40,58,119,Navy
Astronaut Blue,#013E62,1,62,98,Navy
Athens Grey,#EEF0F3,238,240,243,White
Aths,#ECEBEB,236,235,206,White
Atoll,#0A6F75,10,111,117,Teal
Atomic Tangerine,#FF9966,255,153,102,Orange
Au Chico,#97605D,151,96,93,Brown
Aubergine,#3B0910,59,9,16,Maroon
Australian Mint,#F5FFBE,245,255,190,Spring Green
Avocado,#888D65,136,141,101,Olive
Axolotl,#4E6649,78,102,73,Green
Azalea,#F7C8DA,247,200,218,Light Pink
Aztec,#0D1C19,13,28,25,Black
Azure Radiance,#007FFF,0,127,255,Azure
Baby Blue,#E0FFFF,224,255,255,Aqua
Bahama Blue,#026395,2,99,149,Azure
